[
	{
		"name":"Lakshmi Prasad",
		"lastVisitDate":"10-Aug-2014",
		"apptDate":"15-Oct-2014",
		"symptoms":"Nausea, Headache",
		"locality":"Kaikondrahalli"		
	},
	{
		"name":"Harini Narayan",
		"lastVisitDate":"20-Sep-2014",
		"apptDate":"15-Oct-2014",
		"symptoms":"Anamemia, Low BP",
		"locality":"Sarjapur"			
	},
	{
		"name":"Divya Manjunath",
		"lastVisitDate":"15-Jul-2014",
		"apptDate":"15-Oct-2014",
		"symptoms":"Normal",
		"locality":"Marathahalli"			
	},
	{
		"name":"Sowmya",
		"lastVisitDate":"02-Sep-2014",
		"apptDate":"15-Oct-2014",
		"symptoms":"Nausea, Vomiting",
		"locality":"Kasavanahalli"			
	},
	{
		"name":"Archana Swamy",
		"lastVisitDate":"15-Sep-2014",
		"apptDate":"15-Oct-2014",
		"symptoms":"Low BP, Bodyache",
		"locality":"Marathahalli"			
	}
]